[
  {
    "variation": "default",
    "version": "sktwi1xtmkfgx8626",
    "items": [
      {}
    ],
    "primary": {
      "title": [
        {
          "type": "heading1",
          "text": "Signal",
          "spans": []
        }
      ],
      "description": [
        {
          "type": "paragraph",
          "text": "Dolor proident proident velit irure reprehenderit.",
          "spans": []
        }
      ]
    },
    "slice_type": "hero_section"
  }
]