{
  "id": "home",
  "label": "home",
  "repeatable": false,
  "status": true,
  "json": {
    "Main": {
      "uid": {
        "type": "UID",
        "config": {
          "label": "home",
          "placeholder": ""
        }
      },
      "title": {
        "type": "StructuredText",
        "config": {
          "label": "title",
          "placeholder": "",
          "allowTargetBlank": true,
          "single": "heading1"
        }
      },
      "link": {
        "type": "Link",
        "config": {
          "label": "link",
          "placeholder": "",
          "allowTargetBlank": true,
          "select": null
        }
      },
      "slices": {
        "type": "Slices",
        "fieldset": "Slice Zone",
        "config": {
          "choices": {
            "hero_section": {
              "type": "SharedSlice"
            }
          }
        }
      }
    }
  }
}