{
  "id": "mock-doc-id",
  "url": null,
  "type": "page",
  "href": null,
  "tags": [],
  "first_publication_date": "1970-01-01T00:00:01+0000",
  "last_publication_date": "1970-01-01T00:00:01+0000",
  "slugs": [],
  "linked_documents": [],
  "lang": "en-us",
  "alternate_languages": [],
  "data": {
    "title": [
      {
        "type": "heading1",
        "text": "Develop",
        "spans": []
      }
    ],
    "slices": []
  }
}